{
    "status": "ok",
    "totalResults": 38,
    "articles": [
        {
            "source": {
                "id": null,
                "name": "Daily Beast"
            },
            "author": "Barbie Latza Nadeau",
            "title": "Christian Sect, Burning Shed Focus of Deadly Colorado Fire Investigation - Daily Beast",
            "description": "Two people are missing and presumed dead in a fire that sent 10,000 people from their homes and appears to have started on Twelve Tribes land.",
            "url": "https://www.thedailybeast.com/christian-sect-burning-shed-focus-of-deadly-colorado-fire-investigation",
            "urlToImage": "https://img.thedailybeast.com/image/upload/c_crop,d_placeholder_euli9k,h_1824,w_3243,x_0,y_0/dpr_2.0/c_limit,w_740/fl_lossy,q_auto/v1641292781/2022-01-03T074354Z_1487719860_RC24PR954H7G_RTRMADP_3_USA-WILDFIRES-COLORADO-CLIMATE-CHANGE_wvawbh",
            "publishedAt": "2022-01-04T13:47:22Z",
            "content": "Authorities investigating a devastating fire in Colorado are focused on a burning shed on land owned by the fundamentalist religious sect known as The Twelve Tribes. \r\nBoulder County Sheriff Joe Pell… [+3721 chars]"
        },
        {
            "source": {
                "id": null,
                "name": "New York Times"
            },
            "author": "Erin Griffith, Erin Woo",
            "title": "Elizabeth Holmes Found Guilty of Four Charges of Fraud - The New York Times",
            "description": "",
            "url": "https://www.nytimes.com/live/2022/01/03/technology/elizabeth-holmes-trial-verdict",
            "urlToImage": "https://static01.nyt.com/images/2022/01/03/business/03holmes-next/03holmes-next-facebookJumbo-v2.jpg",
            "publishedAt": "2022-01-04T13:46:00Z",
            "content": "SAN JOSE, Calif. Elizabeth Holmes, the founder of the failed blood testing start-up Theranos, was found guilty of four of 11 charges of fraud on Monday, in a case that came to symbolize the pitfalls … [+9332 chars]"
        },
        {
            "source": {
                "id": "cnn",
                "name": "CNN"
            },
            "author": "Miguel Marquez and Holly Yan, CNN",
            "title": "From infants to teens, this hospital has a deluge of young Covid-19 patients. Here's what parents want others to know - CNN",
            "description": "A 4-month-old baby with Covid-19 is struggling to breathe. A teenager with Covid-19 is in a medically induced coma, unaware she gave birth to her new daughter 10 weeks early.",
            "url": "https://www.cnn.com/2022/01/03/health/texas-childrens-hospital-covid-surge/index.html",
            "urlToImage": "https://cdn.cnn.com/cnnnext/dam/assets/220103215932-01-texas-childrens-hospital-covid-surge-super-tease.jpg",
            "publishedAt": "2022-01-04T13:27:00Z",
            "content": "(CNN)At Texas Children's Hospital, 4-month-old Graysen Perry has Covid-19 and is struggling to breathe. \r\nHis mom, Gayvielle Goff, is struggling to talk.\r\n\"It's just really scary,\" Goff said, trying … [+4750 chars]"
        },
        {
            "source": {
                "id": "cbs-news",
                "name": "CBS News"
            },
            "author": "William William",
            "title": "NASA presses ahead with Webb space telescope sunshield deployment - CBS News",
            "description": "It's a major milestone in the James Webb Space Telescope's initial activation.",
            "url": "https://www.cbsnews.com/news/james-webb-space-telescope-nasa-sunshield-deploy/",
            "urlToImage": "https://cbsnews2.cbsistatic.com/hub/i/r/2022/01/03/40e28fb3-e19d-4eb3-bc83-40e18f83a7c0/thumbnail/1200x630/b724620efe51105ffd7e4fb6d52e1b04/artist-impression.jpg",
            "publishedAt": "2022-01-04T13:06:29Z",
            "content": "Engineers activating the James Webb Space Telescope fine-tuned its electrical power system to better cope with the actual space environment and cooled down slightly warmer-than-expected motors before… [+5316 chars]"
        },
        {
            "source": {
                "id": null,
                "name": "Page Six"
            },
            "author": "Francesca Bacardi",
            "title": "Khloé Kardashian's ex Lamar Odom addresses Tristan Thompson paternity test - Page Six",
            "description": "Lamar Odom commented on a Facebook post discussing Thompson’s paternity results that proved he fathered Maralee Nichols’ baby boy.",
            "url": "https://pagesix.com/2022/01/04/khloes-ex-lamar-odom-addresses-tristan-thompson-paternity-test/",
            "urlToImage": "https://pagesix.com/wp-content/uploads/sites/3/2022/01/khloe-lardashian-lamar-odom-tristan-thiompson-maralee-nichols-93.jpg?quality=90&strip=all&w=1200",
            "publishedAt": "2022-01-04T12:58:00Z",
            "content": "Lamar Odom will always be there for Khloé Kardashian.\r\nThe Good American co-founder’s former husband expressed support after her most recent ex, Tristan Thompson, admitted that he is the father of pe… [+2023 chars]"
        },
        {
            "source": {
                "id": "cbs-news",
                "name": "CBS News"
            },
            "author": "Jen Jen",
            "title": "Likely North Korean defector sneaks back across the border from South Korea into the isolated land of Kim Jong Un - CBS News",
            "description": "Officials say a man, reportedly a North Korean who defected to the South about a year ago, has made it back across no man's land. Why would anyone do that?",
            "url": "https://www.cbsnews.com/news/north-korea-defector-crosses-dmz/",
            "urlToImage": "https://cbsnews2.cbsistatic.com/hub/i/r/2020/06/17/e36dd4ba-c777-4efb-9e4c-282dc4cae7d7/thumbnail/1200x630/53d6f4514ae3db94e4e12616208027eb/north-korea-south-korea-dmz-1210701341.jpg",
            "publishedAt": "2022-01-04T12:49:55Z",
            "content": "Seoul — The South Korean military said on Monday that a man believed to be a North Korean who defected to the South had crossed the border back into North Korea on New Year's Day. The unidentified in… [+4258 chars]"
        },
        {
            "source": {
                "id": null,
                "name": "CNBC"
            },
            "author": "Sam Shead",
            "title": "Apple stock will continue to grow faster than the economy, investor says - CNBC",
            "description": "Apple looks \"almost ideal\" across a number of metrics, according to Patrick Armstrong, chief investment officer at Plurimi Group, which owns the stock.",
            "url": "https://www.cnbc.com/2022/01/04/apple-stock-will-continue-to-grow-faster-than-economy-investor-says.html",
            "urlToImage": "https://image.cnbcfm.com/api/v1/image/105662797-1546851409235gettyimages-122089981.jpeg?v=1601384730",
            "publishedAt": "2022-01-04T12:42:58Z",
            "content": "Apple's market cap will continue to rise beyond the $3 trillion milestone it hit briefly Monday, according to one chief investment officer, who argued that the stock's valuation is justified.\r\nPatric… [+1815 chars]"
        },
        {
            "source": {
                "id": null,
                "name": "NBC4 Washington"
            },
            "author": "Sophia Barnes,NBC Washington Staff",
            "title": "Watch Live: Drivers Stranded for 15+ Hours on I-95 in Virginia After Snowstorm - NBC4 Washington",
            "description": "Drivers have been stuck on Interstate 95 in Stafford County, Virginia, for more than 15 hours after multiple trucks crashed amid a major snowstorm.",
            "url": "https://www.nbcwashington.com/news/local/transportation/never-seen-anything-like-it-drivers-stranded-for-15-hours-on-i-95-in-virginia/2926464/",
            "urlToImage": "https://media.nbcwashington.com/2022/01/i95-trucks-mess-photo-jan-4-2022-chopper.jpg?quality=85&strip=all&resize=1200%2C675",
            "publishedAt": "2022-01-04T12:37:15Z",
            "content": "Drivers have been stuck on Interstate 95 in the Stafford County, Virginia, area for more than 15 hours after multiple trucks crashed amid a major snowstorm that left snow and ice packed onto the road… [+4214 chars]"
        },
        {
            "source": {
                "id": "usa-today",
                "name": "USA Today"
            },
            "author": "Nate Davis, USA TODAY",
            "title": "Week 18 NFL power rankings: Top 10 gets shakeup heading into regular season's final weekend - USA TODAY",
            "description": "Bengals' defeat of Chiefs among outcomes altering penultimate power poll.",
            "url": "https://www.usatoday.com/story/sports/nfl/columnist/nate-davis/2022/01/04/nfl-power-rankings-week-18-2021-packers-chiefs-bengals/9086769002/",
            "urlToImage": "https://www.gannett-cdn.com/presto/2022/01/04/USAT/cdf441f0-af24-4343-ae8f-3a1d9187b1a1-NFL_Picks_wk16.jpg?auto=webp&crop=840,472,x840,y816&format=pjpg&width=1200",
            "publishedAt": "2022-01-04T12:31:19Z",
            "content": "NFL power rankings entering Week 18 of the 2021 season (previous rank in parentheses):\r\n1. Packers (1): Pretty good closing argument by the NFC's top-seeded club that it will enter the Super Bowl 56 … [+6325 chars]"
        },
        {
            "source": {
                "id": null,
                "name": "ESPN"
            },
            "author": "Reuters",
            "title": "Novak Djokovic to defend Australian Open tennis title after exemption from COVID-19 vaccination - ESPN",
            "description": "World No. 1 Novak Djokovic said on Tuesday he would defend his Australian Open title at Melbourne Park this month after receiving a medical exemption from getting vaccinated against COVID-19.",
            "url": "https://www.espn.com/tennis/story/_/id/32990613/novak-djokovic-defend-australian-open-title-exemption-vaccination",
            "urlToImage": "https://a2.espncdn.com/combiner/i?img=%2Fphoto%2F2021%2F0221%2Fr817676_1296x729_16%2D9.jpg",
            "publishedAt": "2022-01-04T12:29:32Z",
            "content": "Novak Djokovic ended speculation over his Australian Open title defence by announcing on Tuesday that he would compete at the season's opening Grand Slam event after receiving a medical exemption fro… [+2491 chars]"
        },
        {
            "source": {
                "id": null,
                "name": "WMUR Manchester"
            },
            "author": "Amy Coveno",
            "title": "Tip line, rewards announced for information about missing 7-year-old girl - WMUR Manchester",
            "description": "Manchester police have created a tip line and rewards are being offered for information about a 7-year-old girl who was last seen in 2019.",
            "url": "https://www.wmur.com/article/missing-girl-manchester-harmony-montgomery-reward-tips/38658275",
            "urlToImage": "https://kubrick.htvapps.com/htv-prod-media.s3.amazonaws.com/images/harmony-hotline-1-3-0124-1641244288.jpg?crop=1.00xw:1.00xh;0,0&resize=1200:*",
            "publishedAt": "2022-01-04T12:20:00Z",
            "content": "MANCHESTER, N.H. —Manchester police have created a tip line and rewards are being offered for information about a 7-year-old girl who was last seen in 2019.\r\nPolice Chief Allen Aldenberg urged anyone… [+2058 chars]"
        },
        {
            "source": {
                "id": null,
                "name": "Tom's Guide"
            },
            "author": "Marc McLaren",
            "title": "CES 2022 live blog: Samsung Galaxy S21 FE, LG OLED evo TVs, smart contact lenses and more - Tom's Guide",
            "description": "CES 2022 is underway and we're bringing you all the latest news from the show",
            "url": "https://www.tomsguide.com/news/live/ces-2022",
            "urlToImage": "https://cdn.mos.cms.futurecdn.net/JP5HNVwmbzR84D4wrMXst3-1200-80.jpeg",
            "publishedAt": "2022-01-04T11:52:27Z",
            "content": "2022-01-04T12:29:14.541Z\r\n(Image credit: Netgear)\r\nYou can't underestimate the importance of good Wi-Fi. It's more important to me than anything except my kids, and that's a close-run thing (joking).… [+20552 chars]"
        },
        {
            "source": {
                "id": null,
                "name": "BBC News"
            },
            "author": "https://www.facebook.com/bbcnews",
            "title": "Donald Trump's children refuse to testify in fraud inquiry - BBC News",
            "description": "Donald Jr and Ivanka are being asked to give evidence to a civil investigation into the family business.",
            "url": "https://www.bbc.com/news/world-us-canada-59867530",
            "urlToImage": "https://ichef.bbci.co.uk/news/1024/branded_news/1371/production/_122577940_gettyimages-542748774.jpg",
            "publishedAt": "2022-01-04T11:42:53Z",
            "content": "Image source, Getty Images\r\nImage caption, Donald Jr and Ivanka are the latest individuals to be told to give evidence\r\nTwo of Donald Trump's children have refused to testify to a fraud inquiry into … [+1556 chars]"
        },
        {
            "source": {
                "id": "ars-technica",
                "name": "Ars Technica"
            },
            "author": "Jonathan M. Gitlin",
            "title": "Ford will build 150,000 F-150 Lightnings per year due to demand - Ars Technica",
            "description": "The news comes after last month's decision to triple Mustang Mach-E production.",
            "url": "https://arstechnica.com/cars/2022/01/ford-will-boost-electric-f-150-production-to-150000-trucks-per-year/",
            "urlToImage": "https://cdn.arstechnica.net/wp-content/uploads/2022/01/REVC_1-760x380.jpg",
            "publishedAt": "2022-01-04T11:40:37Z",
            "content": "Enlarge/ Electric Ford F-150 Lightnings being built at the Rouge Electric Vehicle Center in Dearborn, Michigan.\r\n35 with 24 posters participating, including story author\r\nEven without having driven i… [+2011 chars]"
        },
        {
            "source": {
                "id": "cnn",
                "name": "CNN"
            },
            "author": "Jack Bantock, CNN",
            "title": "Monday Night Football: Ben Roethlisberger leads Steelers to emotional win in potentially his last game in Pittsburgh - CNN",
            "description": "If this was to be goodbye then Ben Roethlisberger gave Heinz Field the perfect sendoff, keeping the Pittsburgh Steelers' postseason dreams alive with a 26-14 win over the Cleveland Browns on Monday.",
            "url": "https://www.cnn.com/2022/01/04/sport/mnf-roethlisberger-steelers-browns-nfl-spt-intl/index.html",
            "urlToImage": "https://cdn.cnn.com/cnnnext/dam/assets/220104055440-04-pittsburgh-steelers-cleveland-browns-010322-restricted-super-tease.jpg",
            "publishedAt": "2022-01-04T11:14:00Z",
            "content": "(CNN)If this was to be goodbye then Ben Roethlisberger gave Heinz Field the perfect sendoff, keeping the Pittsburgh Steelers' postseason dreams alive with a 26-14 win over the Cleveland Browns on Mon… [+3530 chars]"
        },
        {
            "source": {
                "id": null,
                "name": "Gizmodo.com"
            },
            "author": "Matt Novak",
            "title": "Anti-Vaxxers Spread Lies Online About Betty White's Death - Gizmodo",
            "description": "The 99-year-old actress didn't die from an adverse reaction to a covid-19 booster.",
            "url": "https://gizmodo.com/anti-vaxxers-spread-lies-online-about-betty-whites-deat-1848299480",
            "urlToImage": "https://i.kinja-img.com/gawker-media/image/upload/c_fill,f_auto,fl_progressive,g_center,h_675,pg_1,q_80,w_1200/5040e5620d4b42bb545d87ed35fe9c63.jpg",
            "publishedAt": "2022-01-04T11:00:00Z",
            "content": "Anti-vaccine activists have spent the past few days spreading lies about Betty White, the beloved actress who passed away at 99 years old on Dec. 31. But contrary to internet rumors, Betty White didn… [+1873 chars]"
        },
        {
            "source": {
                "id": null,
                "name": "Yahoo Entertainment"
            },
            "author": "Javier E. David",
            "title": "Tesla, Apple and the new China syndrome: Morning Brief - Yahoo Finance",
            "description": "Top news and what to watch in the markets on Tuesday, January 4, 2021.",
            "url": "https://finance.yahoo.com/news/tesla-apple-and-the-new-china-syndrome-morning-brief-100957625.html",
            "urlToImage": "https://s.yimg.com/ny/api/res/1.2/3aSpfGF7BxxD3T5ayORlVg--/YXBwaWQ9aGlnaGxhbmRlcjt3PTEyMDA7aD04MDA-/https://s.yimg.com/os/creatr-uploaded-images/2021-05/a794b910-b4ee-11eb-b37b-b75f9d129a65",
            "publishedAt": "2022-01-04T10:56:19Z",
            "content": "This article first appeared in the Morning Brief. Get the Morning Brief sent directly to your inbox every Monday to Friday by 6:30 a.m. ET. Subscribe\r\nTuesday, January 4, 2021\r\nTeslas biggest growth … [+5468 chars]"
        },
        {
            "source": {
                "id": null,
                "name": "NPR"
            },
            "author": null,
            "title": "Activists urge Tesla to close its new Xinjiang showroom - NPR",
            "description": "Tesla on Friday announced the opening of its showroom in Urumqi, the capital of Xinjiang, where officials are accused of abuses against mostly Muslim ethnic minorities.",
            "url": "https://www.npr.org/2022/01/04/1070119371/activists-urge-tesla-to-close-its-new-xinjiang-showroom",
            "urlToImage": "https://media.npr.org/assets/img/2022/01/04/ap22004184349635_wide-f141a1481fbe14a00f19644b630c4ced5043eede.jpg?s=1400",
            "publishedAt": "2022-01-04T10:47:18Z",
            "content": "Tesla CEO Elon Musk arrives on the red carpet for the Axel Springer media award in Berlin in 2020. Activists are appealing to Tesla to close a new showroom in China's northwestern region of Xinjiang,… [+2488 chars]"
        },
        {
            "source": {
                "id": null,
                "name": "BBC News"
            },
            "author": "https://www.facebook.com/bbcnews",
            "title": "New fire at South Africa's parliament 'contained' - BBC News",
            "description": "The fire first broke out on Sunday and completely destroyed the National Assembly, or lower chamber.",
            "url": "https://www.bbc.com/news/world-africa-59861556",
            "urlToImage": "https://ichef.bbci.co.uk/news/1024/branded_news/DA09/production/_122571855_mediaitem122571854.jpg",
            "publishedAt": "2022-01-04T10:26:22Z",
            "content": "Media caption, Watch: Fire crews had to call reinforcements to fight the blaze at the parliament building on Monday\r\nA fire that devastated South Africa's parliament in Cape Town has been contained a… [+2344 chars]"
        },
        {
            "source": {
                "id": null,
                "name": "CNBC"
            },
            "author": "Holly Ellyatt",
            "title": "U.S. reports over 1 million new daily Covid cases as omicron surges - CNBC",
            "description": "The U.S. reported a record number of new Covid cases on Monday, according to data from Johns Hopkins University.",
            "url": "https://www.cnbc.com/2022/01/04/us-counts-over-1-million-new-daily-covid-cases-in-global-record-.html",
            "urlToImage": "https://image.cnbcfm.com/api/v1/image/106991020-1639763568613-gettyimages-1237290875-AFP_9UU9DZ.jpeg?v=1639763627",
            "publishedAt": "2022-01-04T10:08:29Z",
            "content": "The U.S. reported a record number of new Covid cases on Monday, with over one million new infections.\r\nA total of 1,082,549 new coronavirus cases were reported on Monday, according to data from Johns… [+626 chars]"
        }
    ]
}